observable exploration CDVS workshop stats
…
mydf <- read_csv("my_temp_reg.csv")

Rows: 7021 Columns: 16
-- Column specification --------------------------------------------------------
Delimiter: ","
chr  (13): attended_x_or_blank, stat_type, workshop_name, email, discipline,...
dbl   (2): workshop_id, year
dttm  (1): workshop_date

i Use `spec()` to retrieve the full column specification for this data.
i Specify the column types or set `show_col_types = FALSE` to quiet this message.

mydf 

# A tibble: 7,021 x 16
   workshop_id attend~1 stat_~2 workshop_date       works~3 email disci~4 status
         <dbl> <chr>    <chr>   <dttm>              <chr>   <chr> <chr>   <chr> 
 1     6877984 x        Regist~ 2020-10-21 00:00:00 Mappin~ d1f6~ Econ    Gradu~
 2     6877984 <NA>     Regist~ 2020-10-21 00:00:00 Mappin~ 5141~ Nichol~ Gradu~
 3     6877984 <NA>     Regist~ 2020-10-21 00:00:00 Mappin~ d03b~ Nichol~ Gradu~
 4     6877984 <NA>     Regist~ 2020-10-21 00:00:00 Mappin~ e1b9~ Sanford Gradu~
 5     6877984 <NA>     Regist~ 2020-10-21 00:00:00 Mappin~ 0ddd~ Other   Facul~
 6     6877984 x        Regist~ 2020-10-21 00:00:00 Mappin~ 9302~ Sanford Gradu~
 7     6877984 <NA>     Regist~ 2020-10-21 00:00:00 Mappin~ 4334~ Nichol~ Staff 
 8     6877984 <NA>     Regist~ 2020-10-21 00:00:00 Mappin~ 4f68~ Other   Staff 
 9     6877984 <NA>     Regist~ 2020-10-21 00:00:00 Mappin~ 8e9c~ Econ    Gradu~
10     6877984 <NA>     Regist~ 2020-10-21 00:00:00 Mappin~ 4e70~ Other   Staff 
# ... with 7,011 more rows, 8 more variables: acd_year <chr>, semester <chr>,
#   year <dbl>, period <chr>, presenter <chr>, theme <chr>, theme2 <chr>,
#   institutes_initiatives_or_program_affiliation <chr>, and abbreviated
#   variable names 1: attended_x_or_blank, 2: stat_type, 3: workshop_name,
#   4: discipline
…
